{
  "name": "@naxt/monorepo",
  "private": true,
  "workspaces": ["packages/*", "libs/*", "playground/*"],
  "scripts": {
    "add-app": "ts-node scripts/add-app.ts",
    "prebuild": "rimraf packages/*/build",
    "build": "rollup -c rollup.config.ts --configPlugin @rollup/plugin-typescript",
    "build:watch": "yarn build -w",
    "depcheck": "ts-node scripts/depcheck.ts",
    "dev": "cross-env NODE_ENV=development yarn ts-node -r tsconfig-paths/register --project packages/cli/tsconfig.json packages/cli/src/index.ts --demo-project playground/demo-project",
    "nodemon": "nodemon --"
  },
  "dependencies": {
    "glob": "^8.0.3",
    "lodash": "^4.17.21",
    "rollup": "^2.79.0",
    "rollup-plugin-dts": "^4.2.2",
    "tslib": "^2.4.0"
  },
  "devDependencies": {
    "@rollup/plugin-typescript": "^8.5.0",
    "@types/cross-spawn": "^6.0.2",
    "@types/glob": "^8",
    "@types/lodash": "^4",
    "@types/node": "^18.7.17",
    "@types/prettier": "^2",
    "cross-env": "^7.0.3",
    "cross-spawn": "^7.0.3",
    "depcheck": "^1.4.3",
    "nodemon": "^2.0.19",
    "prettier": "^2.7.1",
    "prettier-plugin-packagejson": "^2.2.18",
    "ts-node": "^10.9.1",
    "tsconfig-paths": "^4.1.0",
    "type-fest": "^2.19.0",
    "typescript": "^4.8.3"
  },
  "packageManager": "yarn@3.2.2"
}
